# Blender v2.66 (sub 1) OBJ File: ''
# www.blender.org
mtllib cube3.mtl
o Cube.001
v 1.000000 -1.000000 -1.000000
v 1.000000 -1.000000 1.000000
v -1.000000 -1.000000 1.000000
v 1.000000 1.000000 -0.999999
v -1.000000 1.000000 -1.000000
v -1.000000 1.000000 1.000000
v 0.999999 1.000000 1.000001
v -1.000000 -1.000000 -1.000000
vn 0.000000 1.000000 -0.000000
vn -0.000000 -1.000000 0.000000
vn -1.000000 -0.000000 0.000000
vn 0.000001 0.000000 -1.000000
vn 1.000000 0.000000 0.000000
vn -0.000000 -0.000000 1.000000
vn -1.000000 -0.000001 -0.000001
vn 0.000000 -0.000000 -1.000000
usemtl None
s off
f 1//1 3//1 2//1
f 4//2 6//2 5//2
f 1//3 2//3 4//3
f 2//4 6//4 7//4
f 3//5 5//5 6//5
f 4//6 5//6 1//6
f 8//1 3//1 1//1
f 7//2 6//2 4//2
f 4//7 2//7 7//7
f 3//8 6//8 2//8
f 8//5 5//5 3//5
f 1//6 5//6 8//6
