# Blender v2.61 (sub 0) OBJ File: ''
# www.blender.org
o Suzanne
v 0.437500 0.164062 0.765625
v -0.437500 0.164062 0.765625
v 0.500000 0.093750 0.687500
v -0.500000 0.093750 0.687500
v 0.546875 0.054687 0.578125
v -0.546875 0.054687 0.578125
v 0.351562 -0.023438 0.617188
v -0.351562 -0.023438 0.617188
v 0.351562 0.031250 0.718750
v -0.351562 0.031250 0.718750
v 0.351562 0.132812 0.781250
v -0.351562 0.132812 0.781250
v 0.273438 0.164062 0.796875
v -0.273438 0.164062 0.796875
v 0.203125 0.093750 0.742188
v -0.203125 0.093750 0.742188
v 0.156250 0.054687 0.648438
v -0.156250 0.054687 0.648438
v 0.078125 0.242187 0.656250
v -0.078125 0.242187 0.656250
v 0.140625 0.242187 0.742188
v -0.140625 0.242187 0.742188
v 0.242188 0.242187 0.796875
v -0.242188 0.242187 0.796875
v 0.273438 0.328124 0.796875
v -0.273438 0.328124 0.796875
v 0.203125 0.390625 0.742188
v -0.203125 0.390625 0.742188
v 0.156250 0.437500 0.648438
v -0.156250 0.437500 0.648438
v 0.351562 0.515625 0.617188
v -0.351562 0.515625 0.617188
v 0.351562 0.453125 0.718750
v -0.351562 0.453125 0.718750
v 0.351562 0.359374 0.781250
v -0.351562 0.359374 0.781250
v 0.437500 0.328125 0.765625
v -0.437500 0.328125 0.765625
v 0.500000 0.390625 0.687500
v -0.500000 0.390625 0.687500
v 0.546875 0.437500 0.578125
v -0.546875 0.437500 0.578125
v 0.625000 0.242187 0.562500
v -0.625000 0.242187 0.562500
v 0.562500 0.242187 0.671875
v -0.562500 0.242187 0.671875
v 0.468750 0.242187 0.757813
v -0.468750 0.242187 0.757813
v 0.476562 0.242187 0.773438
v -0.476562 0.242187 0.773438
v 0.445312 0.335937 0.781250
v -0.445312 0.335937 0.781250
v 0.351562 0.374999 0.804688
v -0.351562 0.374999 0.804688
v 0.265625 0.335937 0.820313
v -0.265625 0.335937 0.820313
v 0.226562 0.242187 0.820313
v -0.226562 0.242187 0.820313
v 0.265625 0.156249 0.820313
v -0.265625 0.156249 0.820313
v 0.351562 0.242187 0.828125
v -0.351562 0.242187 0.828125
v 0.351562 0.117187 0.804688
v -0.351562 0.117187 0.804688
v 0.445312 0.156249 0.781250
v -0.445312 0.156249 0.781250
v 0.000000 0.429687 0.742188
v 0.000000 0.351562 0.820313
v 0.000000 -0.679688 0.734375
v 0.000000 -0.320313 0.781250
v 0.000000 -0.187501 0.796875
v 0.000000 -0.773438 0.718750
v 0.000000 0.406250 0.601563
v 0.000000 0.570312 0.570313
v 0.000000 0.898438 -0.546874
v 0.000000 0.562501 -0.851562
v 0.000000 0.070313 -0.828125
v 0.000000 -0.382812 -0.351563
v 0.203125 -0.187500 0.562500
v -0.203125 -0.187500 0.562500
v 0.312500 -0.437500 0.570312
v -0.312500 -0.437500 0.570312
v 0.351562 -0.695313 0.570312
v -0.351562 -0.695313 0.570312
v 0.367188 -0.890625 0.531249
v -0.367188 -0.890625 0.531249
v 0.328125 -0.945313 0.523437
v -0.328125 -0.945313 0.523437
v 0.179688 -0.968750 0.554687
v -0.179688 -0.968750 0.554687
v 0.000000 -0.984375 0.578124
v 0.437500 -0.140625 0.531250
v -0.437500 -0.140625 0.531250
v 0.632812 -0.039063 0.539062
v -0.632812 -0.039063 0.539062
v 0.828125 0.148437 0.445313
v -0.828125 0.148437 0.445313
v 0.859375 0.429687 0.593750
v -0.859375 0.429687 0.593750
v 0.710938 0.484375 0.625000
v -0.710938 0.484375 0.625000
v 0.492188 0.601562 0.687500
v -0.492188 0.601562 0.687500
v 0.320312 0.757812 0.734375
v -0.320312 0.757812 0.734375
v 0.156250 0.718750 0.757813
v -0.156250 0.718750 0.757813
v 0.062500 0.492187 0.750000
v -0.062500 0.492187 0.750000
v 0.164062 0.414062 0.773438
v -0.164062 0.414062 0.773438
v 0.125000 0.304687 0.765625
v -0.125000 0.304687 0.765625
v 0.203125 0.093750 0.742188
v -0.203125 0.093750 0.742188
v 0.375000 0.015625 0.703125
v -0.375000 0.015625 0.703125
v 0.492188 0.062500 0.671875
v -0.492188 0.062500 0.671875
v 0.625000 0.187500 0.648438
v -0.625000 0.187500 0.648438
v 0.640625 0.296875 0.648438
v -0.640625 0.296875 0.648438
v 0.601562 0.375000 0.664063
v -0.601562 0.375000 0.664063
v 0.429688 0.437500 0.718750
v -0.429688 0.437500 0.718750
v 0.250000 0.468750 0.757813
v -0.250000 0.468750 0.757813
v 0.000000 -0.765625 0.734375
v 0.109375 -0.718750 0.734375
v -0.109375 -0.718750 0.734375
v 0.117188 -0.835938 0.710937
v -0.117188 -0.835938 0.710937
v 0.062500 -0.882813 0.695312
v -0.062500 -0.882813 0.695312
v 0.000000 -0.890625 0.687499
v 0.000000 -0.195313 0.750000
v 0.000000 -0.140625 0.742187
v 0.101562 -0.148438 0.742187
v -0.101562 -0.148438 0.742187
v 0.125000 -0.226563 0.750000
v -0.125000 -0.226563 0.750000
v 0.085938 -0.289063 0.742187
v -0.085938 -0.289063 0.742187
v 0.398438 -0.046875 0.671875
v -0.398438 -0.046875 0.671875
v 0.617188 0.054687 0.625000
v -0.617188 0.054687 0.625000
v 0.726562 0.203125 0.601563
v -0.726562 0.203125 0.601563
v 0.742188 0.375000 0.656250
v -0.742188 0.375000 0.656250
v 0.687500 0.414062 0.726563
v -0.687500 0.414062 0.726563
v 0.437500 0.546874 0.796875
v -0.437500 0.546874 0.796875
v 0.312500 0.640624 0.835938
v -0.312500 0.640624 0.835938
v 0.203125 0.617187 0.851563
v -0.203125 0.617187 0.851563
v 0.101562 0.429687 0.843750
v -0.101562 0.429687 0.843750
v 0.125000 -0.101563 0.812500
v -0.125000 -0.101563 0.812500
v 0.210938 -0.445313 0.710937
v -0.210938 -0.445313 0.710937
v 0.250000 -0.703125 0.687500
v -0.250000 -0.703125 0.687500
v 0.265625 -0.820313 0.664062
v -0.265625 -0.820313 0.664062
v 0.234375 -0.914063 0.632812
v -0.234375 -0.914063 0.632812
v 0.164062 -0.929688 0.632812
v -0.164062 -0.929688 0.632812
v 0.000000 -0.945313 0.640624
v 0.000000 0.046875 0.726563
v 0.000000 0.210937 0.765625
v 0.328125 0.476562 0.742188
v -0.328125 0.476562 0.742188
v 0.164062 0.140625 0.750000
v -0.164062 0.140625 0.750000
v 0.132812 0.210937 0.757813
v -0.132812 0.210937 0.757813
v 0.117188 -0.687500 0.734375
v -0.117188 -0.687500 0.734375
v 0.078125 -0.445313 0.750000
v -0.078125 -0.445313 0.750000
v 0.000000 -0.445313 0.750000
v 0.000000 -0.328125 0.742187
v 0.093750 -0.273438 0.781250
v -0.093750 -0.273438 0.781250
v 0.132812 -0.226563 0.796875
v -0.132812 -0.226563 0.796875
v 0.109375 -0.132813 0.781250
v -0.109375 -0.132813 0.781250
v 0.039062 -0.125001 0.781250
v -0.039062 -0.125001 0.781250
v 0.000000 -0.203126 0.828125
v 0.046875 -0.148438 0.812500
v -0.046875 -0.148438 0.812500
v 0.093750 -0.156251 0.812500
v -0.093750 -0.156251 0.812500
v 0.109375 -0.226563 0.828125
v -0.109375 -0.226563 0.828125
v 0.078125 -0.250001 0.804687
v -0.078125 -0.250001 0.804687
v 0.000000 -0.289063 0.804687
v 0.257812 -0.312500 0.554687
v -0.257812 -0.312500 0.554687
v 0.164062 -0.242188 0.710937
v -0.164062 -0.242188 0.710937
v 0.179688 -0.312500 0.710937
v -0.179688 -0.312500 0.710937
v 0.234375 -0.250000 0.554687
v -0.234375 -0.250000 0.554687
v 0.000000 -0.875000 0.687499
v 0.046875 -0.867188 0.687499
v -0.046875 -0.867188 0.687499
v 0.093750 -0.820313 0.710937
v -0.093750 -0.820313 0.710937
v 0.093750 -0.742188 0.726562
v -0.093750 -0.742188 0.726562
v 0.000000 -0.781250 0.656250
v 0.093750 -0.750000 0.664062
v -0.093750 -0.750000 0.664062
v 0.093750 -0.812500 0.640624
v -0.093750 -0.812500 0.640624
v 0.046875 -0.851563 0.632812
v -0.046875 -0.851563 0.632812
v 0.000000 -0.859375 0.632812
v 0.171875 0.218749 0.781250
v -0.171875 0.218749 0.781250
v 0.187500 0.156250 0.773438
v -0.187500 0.156250 0.773438
v 0.335938 0.429687 0.757813
v -0.335938 0.429687 0.757813
v 0.273438 0.421874 0.773438
v -0.273438 0.421874 0.773438
v 0.421875 0.398437 0.773438
v -0.421875 0.398437 0.773438
v 0.562500 0.351562 0.695313
v -0.562500 0.351562 0.695313
v 0.585938 0.289062 0.687500
v -0.585938 0.289062 0.687500
v 0.578125 0.195312 0.679688
v -0.578125 0.195312 0.679688
v 0.476562 0.101562 0.718750
v -0.476562 0.101562 0.718750
v 0.375000 0.062500 0.742188
v -0.375000 0.062500 0.742188
v 0.226562 0.109375 0.781250
v -0.226562 0.109375 0.781250
v 0.179688 0.296874 0.781250
v -0.179688 0.296874 0.781250
v 0.210938 0.374999 0.781250
v -0.210938 0.374999 0.781250
v 0.234375 0.359375 0.757813
v -0.234375 0.359375 0.757813
v 0.195312 0.296875 0.757813
v -0.195312 0.296875 0.757813
v 0.242188 0.125000 0.757813
v -0.242188 0.125000 0.757813
v 0.375000 0.085937 0.726563
v -0.375000 0.085937 0.726563
v 0.460938 0.117187 0.703125
v -0.460938 0.117187 0.703125
v 0.546875 0.210937 0.671875
v -0.546875 0.210937 0.671875
v 0.554688 0.281250 0.671875
v -0.554688 0.281250 0.671875
v 0.531250 0.335937 0.679688
v -0.531250 0.335937 0.679688
v 0.414062 0.390625 0.750000
v -0.414062 0.390625 0.750000
v 0.281250 0.398437 0.765625
v -0.281250 0.398437 0.765625
v 0.335938 0.406250 0.750000
v -0.335938 0.406250 0.750000
v 0.203125 0.171875 0.750000
v -0.203125 0.171875 0.750000
v 0.195312 0.226562 0.750000
v -0.195312 0.226562 0.750000
v 0.109375 0.460937 0.609375
v -0.109375 0.460937 0.609375
v 0.195312 0.664062 0.617188
v -0.195312 0.664062 0.617188
v 0.335938 0.687500 0.593750
v -0.335938 0.687500 0.593750
v 0.484375 0.554687 0.554688
v -0.484375 0.554687 0.554688
v 0.679688 0.453125 0.492188
v -0.679688 0.453125 0.492188
v 0.796875 0.406250 0.460938
v -0.796875 0.406250 0.460938
v 0.773438 0.164062 0.375000
v -0.773438 0.164062 0.375000
v 0.601562 -0.000000 0.414062
v -0.601562 -0.000000 0.414062
v 0.437500 -0.093750 0.468750
v -0.437500 -0.093750 0.468750
v 0.000000 0.898437 0.289063
v 0.000000 0.984375 -0.078124
v 0.000000 -0.195312 -0.671875
v 0.000000 -0.460938 0.187500
v 0.000000 -0.976563 0.460937
v 0.000000 -0.804688 0.343749
v 0.000000 -0.570313 0.320312
v 0.000000 -0.484375 0.281250
v 0.851562 0.234375 0.054688
v -0.851562 0.234375 0.054688
v 0.859375 0.320313 -0.046875
v -0.859375 0.320313 -0.046875
v 0.773438 0.265625 -0.437500
v -0.773438 0.265625 -0.437500
v 0.460938 0.437500 -0.703125
v -0.460938 0.437500 -0.703125
v 0.734375 -0.046875 0.070312
v -0.734375 -0.046875 0.070312
v 0.593750 -0.125000 -0.164063
v -0.593750 -0.125000 -0.164063
v 0.640625 -0.007812 -0.429688
v -0.640625 -0.007812 -0.429688
v 0.335938 0.054688 -0.664062
v -0.335938 0.054688 -0.664062
v 0.234375 -0.351563 0.406250
v -0.234375 -0.351563 0.406250
v 0.179688 -0.414063 0.257812
v -0.179688 -0.414063 0.257812
v 0.289062 -0.710938 0.382812
v -0.289062 -0.710938 0.382812
v 0.250000 -0.500000 0.390625
v -0.250000 -0.500000 0.390625
v 0.328125 -0.914063 0.398437
v -0.328125 -0.914063 0.398437
v 0.140625 -0.757813 0.367187
v -0.140625 -0.757813 0.367187
v 0.125000 -0.539063 0.359375
v -0.125000 -0.539063 0.359375
v 0.164062 -0.945313 0.437499
v -0.164062 -0.945313 0.437499
v 0.218750 -0.281250 0.429687
v -0.218750 -0.281250 0.429687
v 0.210938 -0.226563 0.468750
v -0.210938 -0.226563 0.468750
v 0.203125 -0.171875 0.500000
v -0.203125 -0.171875 0.500000
v 0.210938 -0.390625 0.164062
v -0.210938 -0.390625 0.164062
v 0.296875 -0.312500 -0.265625
v -0.296875 -0.312500 -0.265625
v 0.343750 -0.148437 -0.539063
v -0.343750 -0.148437 -0.539063
v 0.453125 0.867188 -0.382812
v -0.453125 0.867188 -0.382812
v 0.453125 0.929688 -0.070312
v -0.453125 0.929688 -0.070312
v 0.453125 0.851562 0.234376
v -0.453125 0.851562 0.234376
v 0.460938 0.523437 0.429688
v -0.460938 0.523437 0.429688
v 0.726562 0.406250 0.335938
v -0.726562 0.406250 0.335938
v 0.632812 0.453125 0.281250
v -0.632812 0.453125 0.281250
v 0.640625 0.703125 0.054688
v -0.640625 0.703125 0.054688
v 0.796875 0.562500 0.125000
v -0.796875 0.562500 0.125000
v 0.796875 0.617188 -0.117187
v -0.796875 0.617188 -0.117187
v 0.640625 0.750000 -0.195312
v -0.640625 0.750000 -0.195312
v 0.640625 0.679688 -0.445312
v -0.640625 0.679688 -0.445312
v 0.796875 0.539063 -0.359375
v -0.796875 0.539063 -0.359375
v 0.617188 0.328125 -0.585937
v -0.617188 0.328125 -0.585937
v 0.484375 0.023438 -0.546875
v -0.484375 0.023438 -0.546875
v 0.820312 0.328125 -0.203125
v -0.820312 0.328125 -0.203125
v 0.406250 -0.171875 0.148437
v -0.406250 -0.171875 0.148437
v 0.429688 -0.195312 -0.210938
v -0.429688 -0.195312 -0.210938
v 0.890625 0.406250 -0.234375
v -0.890625 0.406250 -0.234375
v 0.773438 -0.140625 -0.125000
v -0.773438 -0.140625 -0.125000
v 1.039062 -0.101562 -0.328125
v -1.039062 -0.101562 -0.328125
v 1.281250 0.054688 -0.429687
v -1.281250 0.054688 -0.429687
v 1.351562 0.320313 -0.421875
v -1.351562 0.320313 -0.421875
v 1.234375 0.507813 -0.421875
v -1.234375 0.507813 -0.421875
v 1.023438 0.476563 -0.312500
v -1.023438 0.476563 -0.312500
v 1.015625 0.414063 -0.289062
v -1.015625 0.414063 -0.289062
v 1.187500 0.437500 -0.390625
v -1.187500 0.437500 -0.390625
v 1.265625 0.289063 -0.406250
v -1.265625 0.289063 -0.406250
v 1.210938 0.078125 -0.406250
v -1.210938 0.078125 -0.406250
v 1.031250 -0.039062 -0.304688
v -1.031250 -0.039062 -0.304688
v 0.828125 -0.070312 -0.132813
v -0.828125 -0.070312 -0.132813
v 0.921875 0.359375 -0.218750
v -0.921875 0.359375 -0.218750
v 0.945312 0.304688 -0.289062
v -0.945312 0.304688 -0.289062
v 0.882812 -0.023437 -0.210938
v -0.882812 -0.023437 -0.210938
v 1.039062 0.000000 -0.367188
v -1.039062 0.000000 -0.367188
v 1.187500 0.093750 -0.445312
v -1.187500 0.093750 -0.445312
v 1.234375 0.250000 -0.445312
v -1.234375 0.250000 -0.445312
v 1.171875 0.359375 -0.437500
v -1.171875 0.359375 -0.437500
v 1.023438 0.343750 -0.359375
v -1.023438 0.343750 -0.359375
v 0.843750 0.289063 -0.210937
v -0.843750 0.289063 -0.210937
v 0.835938 0.171875 -0.273437
v -0.835938 0.171875 -0.273437
v 0.757812 0.093750 -0.273437
v -0.757812 0.093750 -0.273437
v 0.820312 0.085938 -0.273437
v -0.820312 0.085938 -0.273437
v 0.843750 0.015625 -0.273438
v -0.843750 0.015625 -0.273438
v 0.812500 -0.015625 -0.273438
v -0.812500 -0.015625 -0.273438
v 0.726562 0.000000 -0.070312
v -0.726562 0.000000 -0.070312
v 0.718750 -0.023437 -0.171875
v -0.718750 -0.023437 -0.171875
v 0.718750 0.039063 -0.187500
v -0.718750 0.039063 -0.187500
v 0.796875 0.203125 -0.210937
v -0.796875 0.203125 -0.210937
v 0.890625 0.242188 -0.265625
v -0.890625 0.242188 -0.265625
v 0.890625 0.234375 -0.320312
v -0.890625 0.234375 -0.320312
v 0.812500 -0.015625 -0.320312
v -0.812500 -0.015625 -0.320312
v 0.851562 0.015625 -0.320312
v -0.851562 0.015625 -0.320312
v 0.828125 0.078125 -0.320312
v -0.828125 0.078125 -0.320312
v 0.765625 0.093750 -0.320312
v -0.765625 0.093750 -0.320312
v 0.843750 0.171875 -0.320312
v -0.843750 0.171875 -0.320312
v 1.039062 0.328125 -0.414062
v -1.039062 0.328125 -0.414062
v 1.187500 0.343750 -0.484375
v -1.187500 0.343750 -0.484375
v 1.257812 0.242188 -0.492187
v -1.257812 0.242188 -0.492187
v 1.210938 0.085938 -0.484375
v -1.210938 0.085938 -0.484375
v 1.046875 0.000000 -0.421875
v -1.046875 0.000000 -0.421875
v 0.882812 -0.015625 -0.265625
v -0.882812 -0.015625 -0.265625
v 0.953125 0.289063 -0.343750
v -0.953125 0.289063 -0.343750
v 0.890625 0.109375 -0.328125
v -0.890625 0.109375 -0.328125
v 0.937500 0.062500 -0.335937
v -0.937500 0.062500 -0.335937
v 1.000000 0.125000 -0.367187
v -1.000000 0.125000 -0.367187
v 0.960938 0.171875 -0.351562
v -0.960938 0.171875 -0.351562
v 1.015625 0.234375 -0.375000
v -1.015625 0.234375 -0.375000
v 1.054688 0.187500 -0.382812
v -1.054688 0.187500 -0.382812
v 1.109375 0.210938 -0.390625
v -1.109375 0.210938 -0.390625
v 1.085938 0.273438 -0.390625
v -1.085938 0.273438 -0.390625
v 1.023438 0.437500 -0.484375
v -1.023438 0.437500 -0.484375
v 1.250000 0.468750 -0.546875
v -1.250000 0.468750 -0.546875
v 1.367188 0.296875 -0.500000
v -1.367188 0.296875 -0.500000
v 1.312500 0.054688 -0.531250
v -1.312500 0.054688 -0.531250
v 1.039062 -0.085937 -0.492188
v -1.039062 -0.085937 -0.492188
v 0.789062 -0.125000 -0.328125
v -0.789062 -0.125000 -0.328125
v 0.859375 0.382813 -0.382812
v -0.859375 0.382813 -0.382812
vn 0.183599 -0.005310 0.982971
vn 0.715171 -0.662465 0.222724
vn 0.964446 -0.012665 0.263863
vn -0.964446 -0.012665 0.263863
vn -0.715171 -0.662465 0.222724
vn -0.183599 -0.005310 0.982971
vn 0.042543 -0.940336 0.337474
vn -0.042543 -0.940336 0.337474
vn -0.615864 -0.636616 0.464095
vn 0.615864 -0.636616 0.464095
vn -0.926969 -0.012940 0.374859
vn 0.926969 -0.012940 0.374859
vn -0.623676 0.628529 0.464675
vn 0.623676 0.628529 0.464675
vn 0.043153 0.938902 0.341441
vn -0.043153 0.938902 0.341441
vn 0.721610 0.655568 0.222388
vn -0.721610 0.655568 0.222388
vn -0.517655 -0.704123 0.486007
vn -0.295846 0.474960 0.828761
vn -0.673757 0.115452 0.729850
vn 0.673757 0.115452 0.729850
vn 0.295846 0.474960 0.828761
vn 0.517655 -0.704123 0.486007
vn 0.000000 0.859188 0.511612
vn -0.459304 0.862453 0.212592
vn 0.000000 0.529252 0.848445
vn 0.459304 0.862453 0.212592
vn 0.978698 -0.195837 0.061495
vn 0.572680 -0.819666 0.011994
vn 0.579028 -0.802698 0.142705
vn -0.579028 -0.802698 0.142705
vn -0.572680 -0.819666 0.011994
vn -0.978698 -0.195837 0.061495
vn 0.471969 -0.863674 -0.176794
vn 0.785699 -0.571459 0.236732
vn 0.887173 -0.157720 0.433607
vn -0.887173 -0.157720 0.433607
vn -0.785699 -0.571459 0.236732
vn -0.471969 -0.863674 -0.176794
vn 0.445479 -0.358348 -0.820399
vn 0.529221 -0.505112 -0.681722
vn 0.522263 -0.653615 -0.547685
vn -0.522263 -0.653615 -0.547685
vn -0.529221 -0.505112 -0.681722
vn -0.445479 -0.358348 -0.820399
vn 0.857204 -0.493118 -0.148289
vn 0.731193 0.114414 0.672475
vn 0.960936 -0.118839 0.249855
vn -0.960936 -0.118839 0.249855
vn -0.731193 0.114414 0.672475
vn -0.857204 -0.493118 -0.148289
vn 0.461776 -0.329142 0.823664
vn 0.289651 0.315806 0.903500
vn -0.262398 -0.533067 0.804346
vn 0.262398 -0.533067 0.804346
vn -0.289651 0.315806 0.903500
vn -0.461776 -0.329142 0.823664
vn 0.286996 0.597766 -0.748497
vn 0.925260 0.091830 -0.367992
vn 0.636586 -0.504318 -0.583392
vn -0.636586 -0.504318 -0.583392
vn -0.925260 0.091830 -0.367992
vn -0.286996 0.597766 -0.748497
vn 0.098849 -0.840846 -0.532151
vn -0.325510 -0.602924 -0.728355
vn -0.312296 -0.949950 0.001160
vn -0.029542 -0.634999 0.771905
vn 0.312296 -0.949950 0.001160
vn 0.325510 -0.602924 -0.728355
vn -0.098849 -0.840846 -0.532151
vn 0.029542 -0.634999 0.771905
vn 0.650044 0.584643 -0.485336
vn -0.670766 -0.045289 -0.740257
vn 0.670766 -0.045289 -0.740257
vn -0.650044 0.584643 -0.485336
vn 0.279244 0.768303 0.575884
vn -0.908536 0.224219 0.352489
vn 0.908536 0.224219 0.352489
vn -0.279244 0.768303 0.575884
vn 0.414228 0.550890 -0.724479
vn 0.025269 -0.679586 -0.733116
vn -0.414228 0.550890 -0.724479
vn -0.025269 -0.679586 -0.733116
vn -0.018799 0.872250 0.488632
vn 0.018799 0.872250 0.488632
vn -0.383557 0.862972 0.328776
vn 0.383557 0.862972 0.328776
vn -0.778802 0.167791 0.604389
vn 0.778802 0.167791 0.604389
vn -0.652608 -0.476821 0.588794
vn 0.652608 -0.476821 0.588794
vn -0.502884 -0.780999 0.370312
vn 0.502884 -0.780999 0.370312
vn -0.383129 -0.068514 0.921140
vn 0.752861 -0.033784 0.657277
vn 0.383129 -0.068514 0.921140
vn -0.752861 -0.033784 0.657277
vn -0.314371 -0.103732 0.943602
vn 0.583117 0.499893 0.640339
vn -0.583117 0.499893 0.640339
vn 0.314371 -0.103732 0.943602
vn -0.444807 -0.093692 0.890683
vn -0.065004 0.703848 0.707358
vn 0.065004 0.703848 0.707358
vn 0.444807 -0.093692 0.890683
vn -0.408429 0.127262 0.903836
vn 0.033113 0.944914 0.325602
vn 0.408429 0.127262 0.903836
vn -0.033113 0.944914 0.325602
vn -0.292917 0.370922 0.881222
vn -0.644978 0.310129 0.698386
vn 0.644978 0.310129 0.698386
vn 0.292917 0.370922 0.881222
vn -0.572527 -0.418928 0.704733
vn -0.195105 0.038942 0.979980
vn -0.449232 0.379864 0.808618
vn -0.758354 0.266518 0.594806
vn 0.449232 0.379864 0.808618
vn 0.195105 0.038942 0.979980
vn 0.572527 -0.418928 0.704733
vn 0.758354 0.266518 0.594806
vn -0.334666 -0.004578 0.942289
vn -0.659291 -0.468490 0.588061
vn 0.659291 -0.468490 0.588061
vn 0.334666 -0.004578 0.942289
vn -0.334300 0.106754 0.936369
vn -0.648213 -0.420576 0.634724
vn 0.648213 -0.420576 0.634724
vn 0.334300 0.106754 0.936369
vn 0.186804 0.953825 0.235084
vn -0.162877 0.858028 0.487014
vn 0.162877 0.858028 0.487014
vn -0.186804 0.953825 0.235084
vn 0.762139 0.647084 -0.019318
vn -0.762139 0.647084 -0.019318
vn 0.984741 -0.099582 0.142613
vn -0.984741 -0.099582 0.142613
vn 0.149571 -0.745506 0.649464
vn -0.149571 -0.745506 0.649464
vn -0.560442 -0.660878 0.499100
vn 0.560442 -0.660878 0.499100
vn -0.684194 -0.555773 0.472182
vn 0.684194 -0.555773 0.472182
vn -0.599841 0.513138 0.613880
vn 0.599841 0.513138 0.613880
vn -0.842036 -0.176244 0.509781
vn 0.842036 -0.176244 0.509781
vn -0.481368 0.634388 0.604816
vn 0.481368 0.634388 0.604816
vn -0.851466 0.041353 0.522752
vn 0.851466 0.041353 0.522752
vn -0.686361 -0.623371 0.374554
vn 0.686361 -0.623371 0.374554
vn -0.726066 -0.498917 0.473128
vn 0.726066 -0.498917 0.473128
vn -0.848354 -0.435377 0.301157
vn -0.997009 -0.033296 -0.069521
vn 0.997009 -0.033296 -0.069521
vn 0.848354 -0.435377 0.301157
vn -0.372723 -0.224158 0.900449
vn 0.372723 -0.224158 0.900449
vn -0.449232 -0.038331 0.892575
vn 0.449232 -0.038331 0.892575
vn -0.329936 0.315653 0.889645
vn 0.329936 0.315653 0.889645
vn -0.721030 -0.689810 0.065065
vn -0.985015 -0.160466 0.063051
vn 0.985015 -0.160466 0.063051
vn 0.721030 -0.689810 0.065065
vn -0.551164 -0.078768 0.830622
vn 0.551164 -0.078768 0.830622
vn -0.321451 -0.092318 0.942381
vn 0.321451 -0.092318 0.942381
vn 0.154454 -0.123875 0.980193
vn -0.154454 -0.123875 0.980193
vn 0.041108 0.310831 0.949553
vn -0.041108 0.310831 0.949553
vn -0.538377 0.295267 0.789239
vn 0.538377 0.295267 0.789239
vn -0.563280 -0.817286 -0.121311
vn -0.507065 -0.837581 -0.203314
vn 0.507065 -0.837581 -0.203314
vn 0.563280 -0.817286 -0.121311
vn -0.619648 -0.060457 -0.782525
vn -0.473006 0.176305 -0.863216
vn 0.473006 0.176305 -0.863216
vn 0.619648 -0.060457 -0.782525
vn -0.544328 -0.837153 -0.053316
vn 0.544328 -0.837153 -0.053316
vn -0.848628 0.528764 -0.014008
vn -0.872158 0.314554 -0.374645
vn 0.872158 0.314554 -0.374645
vn 0.848628 0.528764 -0.014008
vn -0.741752 0.516434 0.427839
vn 0.741752 0.516434 0.427839
vn -0.771722 0.631062 0.078494
vn 0.771722 0.631062 0.078494
vn -0.930204 -0.306192 -0.202338
vn -0.695700 0.581378 -0.421827
vn 0.695700 0.581378 -0.421827
vn 0.930204 -0.306192 -0.202338
vn -0.340648 0.883206 0.322306
vn -0.226691 0.874813 -0.428114
vn 0.226691 0.874813 -0.428114
vn 0.340648 0.883206 0.322306
vn -0.119297 0.646138 -0.753807
vn 0.476638 0.509445 -0.716392
vn -0.476638 0.509445 -0.716392
vn 0.119297 0.646138 -0.753807
vn -0.444227 0.724418 0.527085
vn 0.000000 0.830622 0.556810
vn 0.444227 0.724418 0.527085
vn -0.444411 0.788537 0.425031
vn -0.345531 0.912442 -0.219123
vn 0.345531 0.912442 -0.219123
vn 0.444411 0.788537 0.425031
vn -0.668172 0.671865 0.319498
vn 0.668172 0.671865 0.319498
vn -0.413495 0.909635 0.039460
vn -0.678396 0.731376 -0.069521
vn 0.413495 0.909635 0.039460
vn 0.678396 0.731376 -0.069521
vn -0.391247 0.815271 -0.426832
vn -0.607532 0.569567 -0.553575
vn 0.391247 0.815271 -0.426832
vn 0.607532 0.569567 -0.553575
vn 0.000000 0.834223 -0.551378
vn 0.000000 0.365032 -0.930967
vn 0.000000 0.999725 0.022584
vn 0.000000 -0.304941 -0.952361
vn -0.689322 -0.668691 -0.278603
vn -0.895657 0.257729 -0.362407
vn 0.895657 0.257729 -0.362407
vn 0.689322 -0.668691 -0.278603
vn 0.000000 -0.983032 -0.183294
vn 0.000000 -0.771081 -0.636708
vn 0.000000 -0.941649 -0.336528
vn 0.000000 -0.691275 -0.722587
vn -0.348827 -0.937132 -0.008148
vn -0.891537 -0.330668 0.309458
vn 0.891537 -0.330668 0.309458
vn 0.348827 -0.937132 -0.008148
vn -0.930601 0.343516 0.126347
vn 0.930601 0.343516 0.126347
vn -0.927763 0.353008 0.120884
vn -0.955718 0.249184 0.156468
vn 0.955718 0.249184 0.156468
vn 0.927763 0.353008 0.120884
vn -0.779839 -0.010498 -0.625843
vn -0.972808 0.100314 0.208716
vn 0.972808 0.100314 0.208716
vn 0.779839 -0.010498 -0.625843
vn -0.277078 -0.314737 -0.907804
vn 0.277078 -0.314737 -0.907804
vn -0.067476 -0.783166 -0.618122
vn -0.555071 -0.476211 -0.681967
vn -0.151372 -0.150975 -0.976867
vn -0.620380 0.083468 -0.779809
vn 0.620380 0.083468 -0.779809
vn 0.555071 -0.476211 -0.681967
vn 0.151372 -0.150975 -0.976867
vn 0.067476 -0.783166 -0.618122
vn -0.945708 -0.257851 0.197699
vn 0.945708 -0.257851 0.197699
vn -0.526658 -0.834651 0.161107
vn 0.526658 -0.834651 0.161107
vn -0.159551 -0.975249 0.152898
vn 0.159551 -0.975249 0.152898
vn 0.000000 -0.881802 -0.471603
vn 0.000000 -0.967650 0.252266
vn 0.000000 -0.297342 -0.954741
vn 0.000000 -0.213294 -0.976959
vn -0.587481 -0.784875 0.196966
vn 0.587481 -0.784875 0.196966
vn -0.906980 -0.400922 -0.128941
vn 0.906980 -0.400922 -0.128941
vn -0.845119 0.443403 0.298502
vn 0.845119 0.443403 0.298502
vn -0.517045 0.829127 0.212531
vn 0.517045 0.829127 0.212531
vn -0.597552 0.784722 0.164586
vn 0.597552 0.784722 0.164586
vn -0.231269 0.956999 0.175054
vn 0.231269 0.956999 0.175054
vn 0.605060 0.768029 0.209754
vn -0.605060 0.768029 0.209754
vn 0.824183 0.546770 0.147313
vn -0.824183 0.546770 0.147313
vn 0.000000 0.963591 0.267281
vn -0.688040 0.298471 0.661397
vn 0.010102 -0.069979 0.997467
vn -0.158055 -0.084231 0.983825
vn -0.801630 0.010987 0.597674
vn 0.158055 -0.084231 0.983825
vn -0.010102 -0.069979 0.997467
vn 0.688040 0.298471 0.661397
vn 0.801630 0.010987 0.597674
vn -0.293405 -0.060152 0.954070
vn -0.789361 -0.203192 0.579302
vn 0.293405 -0.060152 0.954070
vn 0.789361 -0.203192 0.579302
vn -0.182958 -0.102878 0.977691
vn -0.463424 -0.394910 0.793237
vn 0.182958 -0.102878 0.977691
vn 0.463424 -0.394910 0.793237
vn -0.432264 0.583300 0.687643
vn 0.031709 -0.219794 0.975005
vn -0.031709 -0.219794 0.975005
vn 0.432264 0.583300 0.687643
vn -0.143071 0.558672 0.816919
vn -0.184454 -0.186316 0.964995
vn 0.184454 -0.186316 0.964995
vn 0.143071 0.558672 0.816919
vn 0.165288 0.609790 0.775109
vn -0.298990 -0.035615 0.953581
vn 0.298990 -0.035615 0.953581
vn -0.165288 0.609790 0.775109
vn 0.192145 0.191351 0.962523
vn -0.294290 -0.102023 0.950224
vn 0.294290 -0.102023 0.950224
vn -0.192145 0.191351 0.962523
vn 0.422895 -0.107761 0.899716
vn -0.177587 -0.060762 0.982208
vn 0.177587 -0.060762 0.982208
vn -0.422895 -0.107761 0.899716
vn 0.142308 -0.582629 0.800165
vn -0.294351 0.004639 0.955657
vn 0.294351 0.004639 0.955657
vn -0.142308 -0.582629 0.800165
vn 0.274056 -0.855617 0.439100
vn -0.088687 -0.127171 0.987884
vn 0.088687 -0.127171 0.987884
vn -0.274056 -0.855617 0.439100
vn -0.113315 -0.314188 0.942564
vn -0.203619 0.103183 0.973571
vn 0.203619 0.103183 0.973571
vn 0.113315 -0.314188 0.942564
vn -0.174383 -0.268319 0.947386
vn -0.131504 0.064974 0.989166
vn 0.131504 0.064974 0.989166
vn 0.174383 -0.268319 0.947386
vn -0.367840 -0.283608 0.885556
vn -0.258156 -0.126499 0.957762
vn 0.258156 -0.126499 0.957762
vn 0.367840 -0.283608 0.885556
vn -0.149022 -0.154149 0.976714
vn 0.149022 -0.154149 0.976714
vn -0.219001 0.037141 0.975005
vn 0.219001 0.037141 0.975005
vn -0.225410 -0.360759 0.904996
vn 0.225410 -0.360759 0.904996
vn -0.358806 -0.119175 0.925748
vn 0.358806 -0.119175 0.925748
vn -0.460219 -0.165105 0.872280
vn 0.460219 -0.165105 0.872280
vn -0.427900 -0.389508 0.815577
vn 0.427900 -0.389508 0.815577
vn -0.158940 -0.498917 0.851924
vn 0.158940 -0.498917 0.851924
vn 0.128178 -0.292001 0.947752
vn -0.128178 -0.292001 0.947752
vn 0.239296 -0.301187 0.923032
vn -0.239296 -0.301187 0.923032
vn -0.031587 -0.178167 0.983459
vn 0.031587 -0.178167 0.983459
vn 0.200568 -0.134953 0.970306
vn -0.200568 -0.134953 0.970306
vn 0.000000 0.533403 0.845851
vn 0.000000 -0.698935 0.715171
vn 0.000000 -0.961943 0.273232
vn 0.136845 -0.527268 0.838588
vn -0.136845 -0.527268 0.838588
vn 0.635121 0.042756 0.771203
vn -0.635121 0.042756 0.771203
vn 0.414106 0.579821 0.701621
vn -0.414106 0.579821 0.701621
vn 0.000000 0.558763 0.829310
vn 0.058870 -0.378430 0.923734
vn 0.000000 -0.346507 0.938017
vn -0.058870 -0.378430 0.923734
vn -0.130711 -0.318644 0.938810
vn 0.130711 -0.318644 0.938810
vn -0.145940 -0.120182 0.981933
vn 0.145940 -0.120182 0.981933
vn 0.000000 -0.586963 0.809595
vn -0.775140 0.038667 0.630573
vn -0.056093 -0.263863 0.962920
vn 0.056093 -0.263863 0.962920
vn 0.775140 0.038667 0.630573
vn -0.650655 0.148747 0.744652
vn 0.650655 0.148747 0.744652
vn -0.593677 0.108158 0.797388
vn 0.593677 0.108158 0.797388
vn -0.134098 0.006256 0.990936
vn -0.500259 -0.429243 0.751946
vn 0.500259 -0.429243 0.751946
vn 0.134098 0.006256 0.990936
vn -0.932157 -0.137761 0.334758
vn 0.932157 -0.137761 0.334758
vn -0.501389 -0.325327 0.801691
vn 0.501389 -0.325327 0.801691
vn 0.000000 0.516556 0.856227
vn 0.000000 0.064272 0.997925
vn -0.183294 -0.586352 0.789026
vn 0.000000 -0.481521 0.876431
vn 0.000000 0.157811 0.987457
vn -0.448805 -0.314707 0.836360
vn 0.183294 -0.586352 0.789026
vn 0.448805 -0.314707 0.836360
vn -0.361095 0.471267 0.804651
vn 0.185736 0.595599 0.781487
vn -0.185736 0.595599 0.781487
vn 0.361095 0.471267 0.804651
vn -0.926237 -0.243049 0.288003
vn -0.583575 -0.692862 0.423475
vn 0.926237 -0.243049 0.288003
vn 0.583575 -0.692862 0.423475
vn -0.618641 0.775658 0.124790
vn 0.618641 0.775658 0.124790
vn 0.240516 0.949034 0.203558
vn -0.240516 0.949034 0.203558
vn 0.000000 0.828700 0.559648
vn 0.000000 -0.865383 0.501053
vn 0.000000 -0.475936 0.879452
vn 0.000000 -0.251991 0.967711
vn -0.181524 -0.045198 0.982330
vn 0.000000 -0.034059 0.999390
vn 0.181524 -0.045198 0.982330
vn 0.000000 0.000000 1.000000
vn -0.565172 -0.029725 0.824396
vn -0.555650 -0.226356 0.799982
vn 0.555650 -0.226356 0.799982
vn 0.565172 -0.029725 0.824396
vn -0.350230 -0.639149 0.684683
vn 0.350230 -0.639149 0.684683
vn -0.155370 -0.758965 0.632282
vn 0.155370 -0.758965 0.632282
vn 0.000000 -0.775323 0.631550
vn 0.000000 -0.221992 0.975036
vn 0.000000 -0.082736 0.996551
vn 0.061098 -0.025239 0.997803
vn -0.061098 -0.025239 0.997803
vn -0.344279 -0.546617 0.763298
vn 0.344279 -0.546617 0.763298
vn -0.499130 -0.376049 0.780663
vn 0.499130 -0.376049 0.780663
vn -0.566546 -0.318796 0.759819
vn 0.566546 -0.318796 0.759819
vn -0.460707 -0.144810 0.875637
vn 0.460707 -0.144810 0.875637
vn -0.480117 -0.183264 0.857814
vn 0.480117 -0.183264 0.857814
vn -0.308451 0.003845 0.951201
vn 0.308451 0.003845 0.951201
vn -0.266579 0.216590 0.939146
vn 0.266579 0.216590 0.939146
vn 0.157384 0.166021 0.973449
vn -0.157384 0.166021 0.973449
vn -0.969298 -0.011811 0.245552
vn -0.728996 -0.656575 0.193426
vn 0.728996 -0.656575 0.193426
vn 0.969298 -0.011811 0.245552
vn -0.031404 -0.966948 0.252907
vn 0.031404 -0.966948 0.252907
vn 0.653066 -0.686636 0.319315
vn -0.653066 -0.686636 0.319315
vn 0.952574 -0.013123 0.303995
vn -0.952574 -0.013123 0.303995
vn 0.664357 0.682058 0.305582
vn -0.664357 0.682058 0.305582
vn -0.025727 0.972564 0.231147
vn 0.025727 0.972564 0.231147
vn -0.736381 0.652089 0.180273
vn 0.736381 0.652089 0.180273
vn -0.800104 -0.002838 0.599841
vn -0.610218 0.495590 0.618061
vn 0.610218 0.495590 0.618061
vn 0.800104 -0.002838 0.599841
vn -0.868221 -0.004730 0.496109
vn -0.668203 0.537095 0.514786
vn 0.668203 0.537095 0.514786
vn 0.868221 -0.004730 0.496109
vn -0.125736 0.841578 0.525254
vn -0.103061 0.740196 0.664388
vn 0.103061 0.740196 0.664388
vn 0.125736 0.841578 0.525254
vn 0.455947 0.522202 0.720664
vn -0.455947 0.522202 0.720664
vn 0.530595 0.625751 0.571703
vn -0.530595 0.625751 0.571703
vn 0.809717 -0.006989 0.586749
vn 0.689291 -0.004578 0.724418
vn -0.689291 -0.004578 0.724418
vn -0.809717 -0.006989 0.586749
vn 0.456282 -0.535356 0.710746
vn -0.456282 -0.535356 0.710746
vn 0.553850 -0.633198 0.540635
vn -0.553850 -0.633198 0.540635
vn -0.099490 -0.751457 0.652211
vn -0.119327 -0.871151 0.476272
vn 0.099490 -0.751457 0.652211
vn 0.119327 -0.871151 0.476272
vn -0.607624 -0.510392 0.608478
vn 0.607624 -0.510392 0.608478
vn -0.680166 -0.546251 0.488815
vn 0.680166 -0.546251 0.488815
s 1
f 61//1 65//2 49//3
f 50//4 66//5 62//6
f 63//7 65//2 61//1
f 62//6 66//5 64//8
f 61//1 59//9 63//7
f 64//8 60//10 62//6
f 61//1 57//11 59//9
f 60//10 58//12 62//6
f 61//1 55//13 57//11
f 58//12 56//14 62//6
f 61//1 53//15 55//13
f 56//14 54//16 62//6
f 61//1 51//17 53//15
f 54//16 52//18 62//6
f 61//1 49//3 51//17
f 52//18 50//4 62//6
f 225//19 229//20 227//21
f 228//22 230//23 226//24
f 73//25 284//26 74//27
f 74//27 285//28 73//25
f 342//29 348//30 384//31
f 385//32 349//33 343//34
f 300//35 346//36 344//37
f 345//38 347//39 301//40
f 324//41 380//42 352//43
f 353//44 381//45 325//46
f 442//47 444//48 446//49
f 447//50 445//51 443//52
f 464//53 492//54 466//55
f 467//56 493//57 465//58
f 496//59 498//60 500//61
f 501//62 499//63 497//64
f 505//65 323//66 321//67
f 505//65 321//67 391//68
f 320//69 322//70 504//71
f 320//69 504//71 390//72
f 505//65 507//73 315//74
f 505//65 315//74 323//66
f 314//75 506//76 504//71
f 314//75 504//71 322//70
f 389//77 383//78 507//73
f 383//78 315//74 507//73
f 314//75 382//79 506//76
f 382//79 388//80 506//76
f 501//62 497//64 495//81
f 501//62 495//81 503//82
f 494//83 496//59 500//61
f 494//83 500//61 502//84
f 505//65 503//82 507//73
f 503//82 495//81 507//73
f 494//83 502//84 506//76
f 502//84 504//71 506//76
f 495//81 401//85 507//73
f 401//85 389//77 507//73
f 388//80 400//86 506//76
f 400//86 494//83 506//76
f 497//64 399//87 495//81
f 399//87 401//85 495//81
f 400//86 398//88 494//83
f 398//88 496//59 494//83
f 499//63 397//89 497//64
f 397//89 399//87 497//64
f 398//88 396//90 496//59
f 396//90 498//60 496//59
f 501//62 395//91 499//63
f 395//91 397//89 499//63
f 396//90 394//92 498//60
f 394//92 500//61 498//60
f 503//82 393//93 395//91
f 503//82 395//91 501//62
f 394//92 392//94 502//84
f 394//92 502//84 500//61
f 505//65 391//68 393//93
f 505//65 393//93 503//82
f 392//94 390//72 504//71
f 392//94 504//71 502//84
f 491//95 493//57 467//56
f 491//95 467//56 469//96
f 466//55 492//54 490//97
f 466//55 490//97 468//98
f 489//99 491//95 471//100
f 491//95 469//96 471//100
f 468//98 490//97 470//101
f 490//97 488//102 470//101
f 483//103 489//99 473//104
f 489//99 471//100 473//104
f 470//101 488//102 472//105
f 488//102 482//106 472//105
f 481//107 483//103 473//104
f 481//107 473//104 475//108
f 472//105 482//106 480//109
f 472//105 480//109 474//110
f 481//107 475//108 457//111
f 475//108 455//112 457//111
f 454//113 474//110 456//114
f 474//110 480//109 456//114
f 463//115 479//116 459//117
f 463//115 459//117 461//118
f 458//119 478//120 462//121
f 458//119 462//121 460//122
f 479//116 463//115 485//123
f 463//115 453//124 485//123
f 452//125 462//121 484//126
f 462//121 478//120 484//126
f 487//127 485//123 477//128
f 485//123 453//124 477//128
f 452//125 484//126 476//129
f 484//126 486//130 476//129
f 487//127 477//128 465//58
f 487//127 465//58 493//57
f 464//53 476//129 486//130
f 464//53 486//130 492//54
f 491//95 489//99 493//57
f 489//99 487//127 493//57
f 486//130 488//102 492//54
f 488//102 490//97 492//54
f 489//99 483//103 485//123
f 489//99 485//123 487//127
f 484//126 482//106 488//102
f 484//126 488//102 486//130
f 483//103 481//107 485//123
f 481//107 479//116 485//123
f 478//120 480//109 484//126
f 480//109 482//106 484//126
f 481//107 457//111 479//116
f 457//111 459//117 479//116
f 458//119 456//114 478//120
f 456//114 480//109 478//120
f 473//104 421//131 475//108
f 421//131 419//132 475//108
f 418//133 420//134 474//110
f 420//134 472//105 474//110
f 471//100 423//135 473//104
f 423//135 421//131 473//104
f 420//134 422//136 472//105
f 422//136 470//101 472//105
f 469//96 425//137 471//100
f 425//137 423//135 471//100
f 422//136 424//138 470//101
f 424//138 468//98 470//101
f 467//56 427//139 425//137
f 467//56 425//137 469//96
f 424//138 426//140 466//55
f 424//138 466//55 468//98
f 465//58 429//141 427//139
f 465//58 427//139 467//56
f 426//140 428//142 464//53
f 426//140 464//53 466//55
f 477//128 417//143 429//141
f 477//128 429//141 465//58
f 428//142 416//144 476//129
f 428//142 476//129 464//53
f 475//108 419//132 441//145
f 475//108 441//145 455//112
f 440//146 418//133 474//110
f 440//146 474//110 454//113
f 455//112 441//145 439//147
f 455//112 439//147 457//111
f 438//148 440//146 454//113
f 438//148 454//113 456//114
f 457//111 439//147 459//117
f 439//147 437//149 459//117
f 436//150 438//148 458//119
f 438//148 456//114 458//119
f 459//117 437//149 461//118
f 437//149 435//151 461//118
f 434//152 436//150 460//122
f 436//150 458//119 460//122
f 461//118 435//151 433//153
f 461//118 433//153 463//115
f 432//154 434//152 460//122
f 432//154 460//122 462//121
f 463//115 433//153 453//124
f 433//153 451//155 453//124
f 450//156 432//154 452//125
f 432//154 462//121 452//125
f 453//124 451//155 417//143
f 453//124 417//143 477//128
f 416//144 450//156 452//125
f 416//144 452//125 476//129
f 447//50 443//52 449//157
f 443//52 313//158 449//157
f 312//159 442//47 448//160
f 442//47 446//49 448//160
f 431//161 449//157 383//78
f 449//157 313//158 383//78
f 312//159 448//160 382//79
f 448//160 430//162 382//79
f 451//155 431//161 417//143
f 431//161 415//163 417//143
f 414//164 430//162 416//144
f 430//162 450//156 416//144
f 433//153 449//157 451//155
f 449//157 431//161 451//155
f 430//162 448//160 450//156
f 448//160 432//154 450//156
f 447//50 449//157 435//151
f 449//157 433//153 435//151
f 432//154 448//160 434//152
f 448//160 446//49 434//152
f 439//147 447//50 435//151
f 439//147 435//151 437//149
f 434//152 446//49 438//148
f 434//152 438//148 436//150
f 445//51 447//50 441//145
f 447//50 439//147 441//145
f 438//148 446//49 440//146
f 446//49 444//48 440//146
f 441//145 419//132 413//165
f 441//145 413//165 445//51
f 412//166 418//133 440//146
f 412//166 440//146 444//48
f 415//163 431//161 383//78
f 415//163 383//78 389//77
f 382//79 430//162 414//164
f 382//79 414//164 388//80
f 443//52 319//167 311//168
f 443//52 311//168 313//158
f 310//169 318//170 442//47
f 310//169 442//47 312//159
f 413//165 391//68 445//51
f 391//68 321//67 445//51
f 320//69 390//72 444//48
f 390//72 412//166 444//48
f 445//51 321//67 443//52
f 321//67 319//167 443//52
f 318//170 320//69 442//47
f 320//69 444//48 442//47
f 417//143 415//163 403//171
f 417//143 403//171 429//141
f 402//172 414//164 416//144
f 402//172 416//144 428//142
f 427//139 429//141 405//173
f 429//141 403//171 405//173
f 402//172 428//142 404//174
f 428//142 426//140 404//174
f 425//137 427//139 407//175
f 427//139 405//173 407//175
f 404//174 426//140 406//176
f 426//140 424//138 406//176
f 423//135 425//137 409//177
f 425//137 407//175 409//177
f 406//176 424//138 408//178
f 424//138 422//136 408//178
f 421//131 423//135 409//177
f 421//131 409//177 411//179
f 408//178 422//136 420//134
f 408//178 420//134 410//180
f 419//132 421//131 411//179
f 419//132 411//179 413//165
f 410//180 420//134 418//133
f 410//180 418//133 412//166
f 413//165 411//179 393//93
f 413//165 393//93 391//68
f 392//94 410//180 412//166
f 392//94 412//166 390//72
f 411//179 409//177 393//93
f 409//177 395//91 393//93
f 394//92 408//178 392//94
f 408//178 410//180 392//94
f 409//177 407//175 395//91
f 407//175 397//89 395//91
f 396//90 406//176 394//92
f 406//176 408//178 394//92
f 407//175 405//173 397//89
f 405//173 399//87 397//89
f 398//88 404//174 396//90
f 404//174 406//176 396//90
f 405//173 403//171 401//85
f 405//173 401//85 399//87
f 400//86 402//172 404//174
f 400//86 404//174 398//88
f 415//163 389//77 403//171
f 389//77 401//85 403//171
f 400//86 388//80 402//172
f 388//80 414//164 402//172
f 381//45 353//44 387//181
f 353//44 351//182 387//181
f 350//183 352//43 386//184
f 352//43 380//42 386//184
f 381//45 387//181 323//66
f 387//181 321//67 323//66
f 320//69 386//184 322//70
f 386//184 380//42 322//70
f 381//45 379//185 325//46
f 379//185 317//186 325//46
f 316//187 378//188 324//41
f 378//188 380//42 324//41
f 381//45 323//66 379//185
f 323//66 315//74 379//185
f 314//75 322//70 378//188
f 322//70 380//42 378//188
f 343//34 345//38 301//40
f 343//34 301//40 385//32
f 300//35 344//37 342//29
f 300//35 342//29 384//31
f 385//32 301//40 299//189
f 385//32 299//189 319//167
f 298//190 300//35 384//31
f 298//190 384//31 318//170
f 387//181 385//32 321//67
f 385//32 319//167 321//67
f 318//170 384//31 320//69
f 384//31 386//184 320//69
f 387//181 351//182 385//32
f 351//182 349//33 385//32
f 348//30 350//183 384//31
f 350//183 386//184 384//31
f 371//191 377//192 383//78
f 377//192 315//74 383//78
f 314//75 376//193 382//79
f 376//193 370//194 382//79
f 371//191 383//78 313//158
f 371//191 313//158 369//195
f 312//159 382//79 370//194
f 312//159 370//194 368//196
f 369//195 313//158 311//168
f 369//195 311//168 363//197
f 310//169 312//159 368//196
f 310//169 368//196 362//198
f 311//168 297//199 363//197
f 297//199 295//200 363//197
f 294//201 296//202 362//198
f 296//202 310//169 362//198
f 361//203 291//204 285//28
f 361//203 285//28 74//27
f 284//26 290//205 360//206
f 284//26 360//206 74//27
f 289//207 287//208 291//204
f 287//208 285//28 291//204
f 284//26 286//209 290//205
f 286//209 288//210 290//205
f 359//211 361//203 302//212
f 361//203 74//27 302//212
f 74//27 360//206 302//212
f 360//206 358//213 302//212
f 365//214 293//215 361//203
f 293//215 291//204 361//203
f 290//205 292//216 360//206
f 292//216 364//217 360//206
f 365//214 361//203 359//211
f 365//214 359//211 367//218
f 358//213 360//206 364//217
f 358//213 364//217 366//219
f 367//218 359//211 357//220
f 367//218 357//220 373//221
f 356//222 358//213 366//219
f 356//222 366//219 372//223
f 373//221 357//220 355//224
f 373//221 355//224 375//225
f 354//226 356//222 372//223
f 354//226 372//223 374//227
f 375//225 355//224 317//186
f 375//225 317//186 379//185
f 316//187 354//226 374//227
f 316//187 374//227 378//188
f 375//225 379//185 377//192
f 379//185 315//74 377//192
f 314//75 378//188 376//193
f 378//188 374//227 376//193
f 377//192 371//191 373//221
f 377//192 373//221 375//225
f 372//223 370//194 376//193
f 372//223 376//193 374//227
f 371//191 369//195 367//218
f 371//191 367//218 373//221
f 366//219 368//196 370//194
f 366//219 370//194 372//223
f 369//195 363//197 365//214
f 369//195 365//214 367//218
f 364//217 362//198 368//196
f 364//217 368//196 366//219
f 363//197 295//200 293//215
f 363//197 293//215 365//214
f 292//216 294//201 362//198
f 292//216 362//198 364//217
f 317//186 355//224 75//228
f 317//186 75//228 76//229
f 75//228 354//226 316//187
f 75//228 316//187 76//229
f 355//224 357//220 303//230
f 355//224 303//230 75//228
f 303//230 356//222 354//226
f 303//230 354//226 75//228
f 357//220 359//211 303//230
f 359//211 302//212 303//230
f 302//212 358//213 303//230
f 358//213 356//222 303//230
f 325//46 317//186 77//231
f 317//186 76//229 77//231
f 76//229 316//187 77//231
f 316//187 324//41 77//231
f 319//167 299//189 297//199
f 319//167 297//199 311//168
f 296//202 298//190 318//170
f 296//202 318//170 310//169
f 349//33 329//232 343//34
f 329//232 327//233 343//34
f 326//234 328//235 342//29
f 328//235 348//30 342//29
f 329//232 349//33 305//236
f 329//232 305//236 309//237
f 305//236 348//30 328//235
f 305//236 328//235 309//237
f 349//33 351//182 78//238
f 349//33 78//238 305//236
f 78//238 350//183 348//30
f 78//238 348//30 305//236
f 351//182 353//44 78//238
f 353//44 304//239 78//238
f 304//239 352//43 78//238
f 352//43 350//183 78//238
f 353//44 325//46 304//239
f 325//46 77//231 304//239
f 77//231 324//41 304//239
f 324//41 352//43 304//239
f 301//40 347//39 93//240
f 347//39 80//241 93//240
f 79//242 346//36 92//243
f 346//36 300//35 92//243
f 345//38 216//244 347//39
f 216//244 80//241 347//39
f 79//242 215//245 346//36
f 215//245 344//37 346//36
f 343//34 327//233 210//246
f 327//233 82//247 210//246
f 81//248 326//234 209//249
f 326//234 342//29 209//249
f 345//38 343//34 216//244
f 343//34 210//246 216//244
f 209//249 342//29 215//245
f 342//29 344//37 215//245
f 333//250 84//251 82//247
f 333//250 82//247 327//233
f 81//248 83//252 332//253
f 81//248 332//253 326//234
f 339//254 333//250 329//232
f 333//250 327//233 329//232
f 326//234 332//253 328//235
f 332//253 338//255 328//235
f 341//256 335//257 337//258
f 335//257 331//259 337//258
f 330//260 334//261 336//262
f 334//261 340//263 336//262
f 339//254 337//258 331//259
f 339//254 331//259 333//250
f 330//260 336//262 338//255
f 330//260 338//255 332//253
f 331//259 86//264 84//251
f 331//259 84//251 333//250
f 83//252 85//265 330//260
f 83//252 330//260 332//253
f 335//257 88//266 86//264
f 335//257 86//264 331//259
f 85//265 87//267 334//261
f 85//265 334//261 330//260
f 341//256 90//268 88//266
f 341//256 88//266 335//257
f 87//267 89//269 340//263
f 87//267 340//263 334//261
f 306//270 91//271 90//268
f 306//270 90//268 341//256
f 89//269 91//271 306//270
f 89//269 306//270 340//263
f 337//258 307//272 341//256
f 307//272 306//270 341//256
f 306//270 307//272 340//263
f 307//272 336//262 340//263
f 339//254 308//273 337//258
f 308//273 307//272 337//258
f 307//272 308//273 336//262
f 308//273 338//255 336//262
f 329//232 309//237 339//254
f 309//237 308//273 339//254
f 308//273 309//237 338//255
f 309//237 328//235 338//255
f 301//40 93//240 95//274
f 301//40 95//274 299//189
f 94//275 92//243 300//35
f 94//275 300//35 298//190
f 299//189 95//274 97//276
f 299//189 97//276 297//199
f 96//277 94//275 298//190
f 96//277 298//190 296//202
f 297//199 97//276 295//200
f 97//276 99//278 295//200
f 98//279 96//277 294//201
f 96//277 296//202 294//201
f 295//200 99//278 101//280
f 295//200 101//280 293//215
f 100//281 98//279 294//201
f 100//281 294//201 292//216
f 293//215 101//280 291//204
f 101//280 103//282 291//204
f 102//283 100//281 290//205
f 100//281 292//216 290//205
f 291//204 103//282 289//207
f 103//282 105//284 289//207
f 104//285 102//283 288//210
f 102//283 290//205 288//210
f 289//207 105//284 287//208
f 105//284 107//286 287//208
f 106//287 104//285 286//209
f 104//285 288//210 286//209
f 287//208 107//286 109//288
f 287//208 109//288 285//28
f 108//289 106//287 286//209
f 108//289 286//209 284//26
f 285//28 109//288 67//290
f 285//28 67//290 73//25
f 67//290 108//289 284//26
f 67//290 284//26 73//25
f 281//291 235//292 233//293
f 281//291 233//293 283//294
f 232//295 234//296 280//297
f 232//295 280//297 282//298
f 283//294 233//293 255//299
f 283//294 255//299 261//300
f 254//301 232//295 282//298
f 254//301 282//298 260//302
f 261//300 255//299 257//303
f 261//300 257//303 259//304
f 256//305 254//301 260//302
f 256//305 260//302 258//306
f 263//307 253//308 235//292
f 263//307 235//292 281//291
f 234//296 252//309 262//310
f 234//296 262//310 280//297
f 265//311 251//312 263//307
f 251//312 253//308 263//307
f 252//309 250//313 262//310
f 250//313 264//314 262//310
f 267//315 249//316 265//311
f 249//316 251//312 265//311
f 250//313 248//317 264//314
f 248//317 266//318 264//314
f 269//319 247//320 249//316
f 269//319 249//316 267//315
f 248//317 246//321 268//322
f 248//317 268//322 266//318
f 271//323 245//324 269//319
f 245//324 247//320 269//319
f 246//321 244//325 268//322
f 244//325 270//326 268//322
f 273//327 243//328 245//324
f 273//327 245//324 271//323
f 244//325 242//329 272//330
f 244//325 272//330 270//326
f 275//331 241//332 273//327
f 241//332 243//328 273//327
f 242//329 240//333 272//330
f 240//333 274//334 272//330
f 279//335 237//336 275//331
f 237//336 241//332 275//331
f 240//333 236//337 274//334
f 236//337 278//338 274//334
f 277//339 239//340 237//336
f 277//339 237//336 279//335
f 236//337 238//341 276//342
f 236//337 276//342 278//338
f 259//304 257//303 239//340
f 259//304 239//340 277//339
f 238//341 256//305 258//306
f 238//341 258//306 276//342
f 257//303 111//343 129//344
f 257//303 129//344 239//340
f 128//345 110//346 256//305
f 128//345 256//305 238//341
f 239//340 129//344 180//347
f 239//340 180//347 237//336
f 179//348 128//345 238//341
f 179//348 238//341 236//337
f 237//336 180//347 127//349
f 237//336 127//349 241//332
f 126//350 179//348 236//337
f 126//350 236//337 240//333
f 241//332 127//349 243//328
f 127//349 125//351 243//328
f 124//352 126//350 242//329
f 126//350 240//333 242//329
f 243//328 125//351 245//324
f 125//351 123//353 245//324
f 122//354 124//352 244//325
f 124//352 242//329 244//325
f 245//324 123//353 121//355
f 245//324 121//355 247//320
f 120//356 122//354 244//325
f 120//356 244//325 246//321
f 247//320 121//355 119//357
f 247//320 119//357 249//316
f 118//358 120//356 246//321
f 118//358 246//321 248//317
f 249//316 119//357 117//359
f 249//316 117//359 251//312
f 116//360 118//358 248//317
f 116//360 248//317 250//313
f 251//312 117//359 115//361
f 251//312 115//361 253//308
f 114//362 116//360 250//313
f 114//362 250//313 252//309
f 253//308 115//361 235//292
f 115//361 182//363 235//292
f 181//364 114//362 234//296
f 114//362 252//309 234//296
f 255//299 113//365 257//303
f 113//365 111//343 257//303
f 110//346 112//366 256//305
f 112//366 254//301 256//305
f 233//293 184//367 113//365
f 233//293 113//365 255//299
f 112//366 183//368 232//295
f 112//366 232//295 254//301
f 235//292 182//363 184//367
f 235//292 184//367 233//293
f 183//368 181//364 234//296
f 183//368 234//296 232//295
f 230//23 231//369 224//370
f 230//23 224//370 226//24
f 224//370 231//369 229//20
f 224//370 229//20 225//19
f 224//370 72//371 226//24
f 72//371 223//372 226//24
f 222//373 72//371 225//19
f 72//371 224//370 225//19
f 226//24 223//372 221//374
f 226//24 221//374 228//22
f 220//375 222//373 225//19
f 220//375 225//19 227//21
f 228//22 221//374 219//376
f 228//22 219//376 230//23
f 218//377 220//375 227//21
f 218//377 227//21 229//20
f 230//23 219//376 231//369
f 219//376 217//378 231//369
f 217//378 218//377 231//369
f 218//377 229//20 231//369
f 219//376 136//379 137//380
f 219//376 137//380 217//378
f 137//380 135//381 218//377
f 137//380 218//377 217//378
f 221//374 134//382 136//379
f 221//374 136//379 219//376
f 135//381 133//383 220//375
f 135//381 220//375 218//377
f 223//372 132//384 134//382
f 223//372 134//382 221//374
f 133//383 131//385 222//373
f 133//383 222//373 220//375
f 72//371 130//386 223//372
f 130//386 132//384 223//372
f 131//385 130//386 222//373
f 130//386 72//371 222//373
f 212//387 165//388 80//241
f 212//387 80//241 216//244
f 79//242 164//389 211//390
f 79//242 211//390 215//245
f 212//387 216//244 214//391
f 216//244 210//246 214//391
f 209//249 215//245 213//392
f 215//245 211//390 213//392
f 214//391 210//246 167//393
f 210//246 82//247 167//393
f 81//248 209//249 166//394
f 209//249 213//392 166//394
f 167//393 188//395 214//391
f 188//395 145//396 214//391
f 144//397 187//398 213//392
f 187//398 166//394 213//392
f 214//391 145//396 212//387
f 145//396 143//399 212//387
f 142//400 144//397 211//390
f 144//397 213//392 211//390
f 212//387 143//399 141//401
f 212//387 141//401 165//388
f 140//402 142//400 211//390
f 140//402 211//390 164//389
f 165//388 141//401 139//403
f 165//388 139//403 177//404
f 139//403 140//402 164//389
f 139//403 164//389 177//404
f 207//405 208//406 199//407
f 207//405 199//407 205//408
f 199//407 208//406 206//409
f 199//407 206//409 204//410
f 203//411 205//408 201//412
f 205//408 199//407 201//412
f 199//407 204//410 200//413
f 204//410 202//414 200//413
f 207//405 205//408 194//415
f 207//405 194//415 192//416
f 193//417 204//410 206//409
f 193//417 206//409 191//418
f 205//408 203//411 194//415
f 203//411 196//419 194//415
f 195//420 202//414 193//417
f 202//414 204//410 193//417
f 203//411 201//412 198//421
f 203//411 198//421 196//419
f 197//422 200//413 202//414
f 197//422 202//414 195//420
f 201//412 199//407 71//423
f 201//412 71//423 198//421
f 71//423 199//407 200//413
f 71//423 200//413 197//422
f 207//405 192//416 208//406
f 192//416 70//424 208//406
f 70//424 191//418 208//406
f 191//418 206//409 208//406
f 192//416 145//396 70//424
f 145//396 190//425 70//424
f 190//425 144//397 70//424
f 144//397 191//418 70//424
f 198//421 71//423 139//403
f 71//423 138//426 139//403
f 138//426 71//423 139//403
f 71//423 197//422 139//403
f 196//419 198//421 141//401
f 198//421 139//403 141//401
f 139//403 197//422 140//402
f 197//422 195//420 140//402
f 194//415 196//419 143//399
f 196//419 141//401 143//399
f 140//402 195//420 142//400
f 195//420 193//417 142//400
f 192//416 194//415 143//399
f 192//416 143//399 145//396
f 142//400 193//417 191//418
f 142//400 191//418 144//397
f 186//427 132//384 69//428
f 132//384 130//386 69//428
f 130//386 131//385 69//428
f 131//385 185//429 69//428
f 189//430 188//395 69//428
f 188//395 186//427 69//428
f 185//429 187//398 69//428
f 187//398 189//430 69//428
f 189//430 190//425 188//395
f 190//425 145//396 188//395
f 144//397 190//425 187//398
f 190//425 189//430 187//398
f 169//431 171//432 132//384
f 169//431 132//384 186//427
f 131//385 170//433 168//434
f 131//385 168//434 185//429
f 186//427 188//395 167//393
f 186//427 167//393 169//431
f 166//394 187//398 185//429
f 166//394 185//429 168//434
f 173//435 134//382 171//432
f 134//382 132//384 171//432
f 131//385 133//383 170//433
f 133//383 172//436 170//433
f 175//437 136//379 134//382
f 175//437 134//382 173//435
f 133//383 135//381 174//438
f 133//383 174//438 172//436
f 176//439 137//380 136//379
f 176//439 136//379 175//437
f 135//381 137//380 176//439
f 135//381 176//439 174//438
f 184//367 182//363 178//440
f 182//363 177//404 178//440
f 177//404 181//364 178//440
f 181//364 183//368 178//440
f 178//440 68//441 113//365
f 178//440 113//365 184//367
f 112//366 68//441 178//440
f 112//366 178//440 183//368
f 68//441 163//442 113//365
f 163//442 111//343 113//365
f 110//346 162//443 112//366
f 162//443 68//441 112//366
f 177//404 182//363 115//361
f 177//404 115//361 165//388
f 114//362 181//364 177//404
f 114//362 177//404 164//389
f 147//444 165//388 115//361
f 147//444 115//361 117//359
f 114//362 164//389 146//445
f 114//362 146//445 116//360
f 149//446 147//444 119//357
f 147//444 117//359 119//357
f 116//360 146//445 118//358
f 146//445 148//447 118//358
f 151//448 149//446 121//355
f 149//446 119//357 121//355
f 118//358 148//447 120//356
f 148//447 150//449 120//356
f 153//450 151//448 123//353
f 151//448 121//355 123//353
f 120//356 150//449 122//354
f 150//449 152//451 122//354
f 155//452 153//450 125//351
f 153//450 123//353 125//351
f 122//354 152//451 124//352
f 152//451 154//453 124//352
f 157//454 155//452 127//349
f 155//452 125//351 127//349
f 124//352 154//453 126//350
f 154//453 156//455 126//350
f 159//456 157//454 180//347
f 157//454 127//349 180//347
f 126//350 156//455 179//348
f 156//455 158//457 179//348
f 159//456 180//347 129//344
f 159//456 129//344 161//458
f 128//345 179//348 158//457
f 128//345 158//457 160//459
f 161//458 129//344 163//442
f 129//344 111//343 163//442
f 110//346 128//345 162//443
f 128//345 160//459 162//443
f 68//441 67//290 163//442
f 67//290 109//288 163//442
f 108//289 67//290 162//443
f 67//290 68//441 162//443
f 163//442 109//288 161//458
f 109//288 107//286 161//458
f 106//287 108//289 160//459
f 108//289 162//443 160//459
f 161//458 107//286 159//456
f 107//286 105//284 159//456
f 104//285 106//287 158//457
f 106//287 160//459 158//457
f 159//456 105//284 103//282
f 159//456 103//282 157//454
f 102//283 104//285 158//457
f 102//283 158//457 156//455
f 157//454 103//282 155//452
f 103//282 101//280 155//452
f 100//281 102//283 154//453
f 102//283 156//455 154//453
f 155//452 101//280 153//450
f 101//280 99//278 153//450
f 98//279 100//281 152//451
f 100//281 154//453 152//451
f 153//450 99//278 151//448
f 99//278 97//276 151//448
f 96//277 98//279 150//449
f 98//279 152//451 150//449
f 151//448 97//276 95//274
f 151//448 95//274 149//446
f 94//275 96//277 150//449
f 94//275 150//449 148//447
f 149//446 95//274 147//444
f 95//274 93//240 147//444
f 92//243 94//275 146//445
f 94//275 148//447 146//445
f 147//444 93//240 80//241
f 147//444 80//241 165//388
f 79//242 92//243 146//445
f 79//242 146//445 164//389
f 169//431 167//393 82//247
f 169//431 82//247 84//251
f 81//248 166//394 168//434
f 81//248 168//434 83//252
f 171//432 169//431 84//251
f 171//432 84//251 86//264
f 83//252 168//434 170//433
f 83//252 170//433 85//265
f 173//435 171//432 86//264
f 173//435 86//264 88//266
f 85//265 170//433 172//436
f 85//265 172//436 87//267
f 175//437 173//435 90//268
f 173//435 88//266 90//268
f 87//267 172//436 89//269
f 172//436 174//438 89//269
f 176//439 175//437 91//271
f 175//437 90//268 91//271
f 89//269 174//438 91//271
f 174//438 176//439 91//271
f 50//4 48//460 2//461
f 50//4 2//461 66//5
f 1//462 47//463 49//3
f 1//462 49//3 65//2
f 66//5 2//461 12//464
f 66//5 12//464 64//8
f 11//465 1//462 65//2
f 11//465 65//2 63//7
f 64//8 12//464 14//466
f 64//8 14//466 60//10
f 13//467 11//465 63//7
f 13//467 63//7 59//9
f 60//10 14//466 24//468
f 60//10 24//468 58//12
f 23//469 13//467 59//9
f 23//469 59//9 57//11
f 58//12 24//468 56//14
f 24//468 26//470 56//14
f 25//471 23//469 55//13
f 23//469 57//11 55//13
f 56//14 26//470 54//16
f 26//470 36//472 54//16
f 35//473 25//471 53//15
f 25//471 55//13 53//15
f 54//16 36//472 52//18
f 36//472 38//474 52//18
f 37//475 35//473 51//17
f 35//473 53//15 51//17
f 52//18 38//474 50//4
f 38//474 48//460 50//4
f 47//463 37//475 49//3
f 37//475 51//17 49//3
f 46//476 48//460 40//477
f 48//460 38//474 40//477
f 37//475 47//463 39//478
f 47//463 45//479 39//478
f 44//480 46//476 42//481
f 46//476 40//477 42//481
f 39//478 45//479 41//482
f 45//479 43//483 41//482
f 42//481 40//477 32//484
f 40//477 34//485 32//484
f 33//486 39//478 31//487
f 39//478 41//482 31//487
f 40//477 38//474 34//485
f 38//474 36//472 34//485
f 35//473 37//475 33//486
f 37//475 39//478 33//486
f 34//485 36//472 28//488
f 36//472 26//470 28//488
f 25//471 35//473 27//489
f 35//473 33//486 27//489
f 32//484 34//485 30//490
f 34//485 28//488 30//490
f 27//489 33//486 29//491
f 33//486 31//487 29//491
f 30//490 28//488 20//492
f 28//488 22//493 20//492
f 21//494 27//489 19//495
f 27//489 29//491 19//495
f 28//488 26//470 24//468
f 28//488 24//468 22//493
f 23//469 25//471 27//489
f 23//469 27//489 21//494
f 22//493 24//468 16//496
f 24//468 14//466 16//496
f 13//467 23//469 15//497
f 23//469 21//494 15//497
f 20//492 22//493 18//498
f 22//493 16//496 18//498
f 15//497 21//494 17//499
f 21//494 19//495 17//499
f 18//498 16//496 10//500
f 18//498 10//500 8//501
f 9//502 15//497 17//499
f 9//502 17//499 7//503
f 16//496 14//466 12//464
f 16//496 12//464 10//500
f 11//465 13//467 15//497
f 11//465 15//497 9//502
f 10//500 12//464 2//461
f 10//500 2//461 4//504
f 1//462 11//465 9//502
f 1//462 9//502 3//505
f 8//501 10//500 4//504
f 8//501 4//504 6//506
f 3//505 9//502 7//503
f 3//505 7//503 5//507
f 6//506 4//504 46//476
f 6//506 46//476 44//480
f 45//479 3//505 5//507
f 45//479 5//507 43//483
f 4//504 2//461 48//460
f 4//504 48//460 46//476
f 47//463 1//462 3//505
f 47//463 3//505 45//479
